.vlarge[How to make better spaghetti (plots) 🍝 🍝 ]
…
.medium[
1. **index**: Your time variable
2. **key**: Variable(s) defining individual groups (or series)

`1. +  2.` determine distinct rows in a tsibble.

(From Dr. Earo Wang's talk: [Melt the clock](https://slides.earo.me/rstudioconf19/#8))
]

---

.large[

```
## # A tsibble: 1,490 x 3 [!]
## # Key:       country [144]
##   country      year height_cm
##   <chr>       <dbl>     <dbl>
## 1 Afghanistan  1870      168.
## 2 Afghanistan  1880      166.
## 3 Afghanistan  1930      167.
## 4 Afghanistan  1990      167.
## 5 Afghanistan  2000      161.
## 6 Albania      1880      170.
## # … with 1,484 more rows
```
…
---
class: inverse, middle, cetner

.vhuge[
Let's see that **one more time**, but with the data
]

---

## Identify features: one observation per **key**

.large[

```
## # A tsibble: 1,490 x 3 [!]
## # Key:       country [144]
##   country      year height_cm
##   <chr>       <dbl>     <dbl>
## 1 Afghanistan  1870      168.
## 2 Afghanistan  1880      166.
## 3 Afghanistan  1930      167.
## 4 Afghanistan  1990      167.
## 5 Afghanistan  2000      161.
## 6 Albania      1880      170.
## # … with 1,484 more rows
```
]

---

## Identify features: one observation per **key**

.large[

```
## # A tibble: 144 x 2
##   country       max
##   <chr>       <dbl>
## 1 Afghanistan  168.
## 2 Albania      170.
## 3 Algeria      171.
## 4 Angola       169.
## 5 Argentina    174.
## 6 Armenia      172.
## # … with 138 more rows
```
…
---

## Join summaries back to data

```r
heights_five %>% 
  filter(max == max(max) | max == min(max)) %>% 
  left_join(heights, by = "country")
```

```
## # A tibble: 21 x 4
##   country   max  year height_cm
##   <chr>   <dbl> <dbl>     <dbl>
## 1 Denmark  183.  1820      167.
## 2 Denmark  183.  1830      165.
## 3 Denmark  183.  1850      167.
## 4 Denmark  183.  1860      168.
## 5 Denmark  183.  1870      168.
## 6 Denmark  183.  1880      170.
## # … with 15 more rows
```
…
.vhuge[
But Nick, how did you create those summaries?
]

---

## Identify features: one per **key** <img src="https://feasts.tidyverts.org/reference/figures/logo.png" align="right" height=140/>

```r
heights %>%
* features(height_cm, feat_five_num)
```

```
## # A tibble: 144 x 6
##   country       min   q25   med   q75   max
##   <chr>       <dbl> <dbl> <dbl> <dbl> <dbl>
## 1 Afghanistan  161.  164.  167.  168.  168.
## 2 Albania      168.  168.  170.  170.  170.
## 3 Algeria      166.  168.  169   170.  171.
## 4 Angola       159.  160.  167.  168.  169.
## 5 Argentina    167.  168.  168.  170.  174.
## 6 Armenia      164.  166.  169.  172.  172.
## # … with 138 more rows
```

---

## What is the range of the data? `feat_ranges`

```r
heights %>%
  features(height_cm, feat_ranges)
```

```
## # A tibble: 144 x 5
##   country       min   max range_diff   iqr
##   <chr>       <dbl> <dbl>      <dbl> <dbl>
## 1 Afghanistan  161.  168.       7     3.27
## 2 Albania      168.  170.       2.20  1.53
## 3 Algeria      166.  171.       5.06  2.15
## 4 Angola       159.  169.      10.5   7.87
## 5 Argentina    167.  174.       7     2.21
## 6 Armenia      164.  172.       8.82  5.30
## # … with 138 more rows
```

---

## Does it only increase or decrease? `feat_monotonic`

```r
heights %>%
  features(height_cm, feat_monotonic)
```

```
## # A tibble: 144 x 5
##   country     increase decrease unvary monotonic
##   <chr>       <lgl>    <lgl>    <lgl>  <lgl>    
## 1 Afghanistan FALSE    FALSE    FALSE  FALSE    
## 2 Albania     FALSE    TRUE     FALSE  TRUE     
## 3 Algeria     FALSE    FALSE    FALSE  FALSE    
## 4 Angola      FALSE    FALSE    FALSE  FALSE    
## 5 Argentina   FALSE    FALSE    FALSE  FALSE    
## 6 Armenia     FALSE    FALSE    FALSE  FALSE    
## # … with 138 more rows
```

---

## What is the spread of my data? `feat_spread`

```r
heights %>%
  features(height_cm, feat_spread) 
```

```
## # A tibble: 144 x 5
##   country        var    sd   mad   iqr
##   <chr>        <dbl> <dbl> <dbl> <dbl>
## 1 Afghanistan  7.20  2.68  1.65   3.27
## 2 Albania      0.950 0.975 0.667  1.53
## 3 Algeria      3.30  1.82  0.741  2.15
## 4 Angola      16.9   4.12  3.11   7.87
## 5 Argentina    2.89  1.70  1.36   2.21
## 6 Armenia     10.6   3.26  3.60   5.30
## # … with 138 more rows
```
…
heights_aug <- heights %>%
  add_predictions(heights_fit, var = "pred") %>%
  add_residuals(heights_fit, var = "res")
```

---

# Problem #3: How do I **understand** a model?

.large[

```
## # A tsibble: 1,490 x 5 [!]
## # Key:       country [144]
##   country      year height_cm  pred    res
##   <chr>       <dbl>     <dbl> <dbl>  <dbl>
## 1 Afghanistan  1870      168.  164.  4.59 
## 2 Afghanistan  1880      166.  164.  1.52 
## 3 Afghanistan  1930      167.  166.  0.823
## 4 Afghanistan  1990      167.  168. -1.04 
## 5 Afghanistan  2000      161.  169. -7.10 
## 6 Albania      1880      170.  168.  2.39 
## # … with 1,484 more rows
```
…
